^C:\USERS\SMOKEY MCBONGWATER\DESKTOP\REPO\C-CA4\AIDANBLIGHCA4ABUGSLIFE\BUG.CPP|C:\USERS\SMOKEY MCBONGWATER\DESKTOP\REPO\C-CA4\AIDANBLIGHCA4ABUGSLIFE\CRAWLER.CPP
C:\USERS\SMOKEY MCBONGWATER\DESKTOP\REPO\C-CA4\AIDANBLIGHCA4ABUGSLIFE\X64\DEBUG\VC142.PDB
C:\USERS\SMOKEY MCBONGWATER\DESKTOP\REPO\C-CA4\AIDANBLIGHCA4ABUGSLIFE\X64\DEBUG\VC142.IDB
C:\USERS\SMOKEY MCBONGWATER\DESKTOP\REPO\C-CA4\AIDANBLIGHCA4ABUGSLIFE\X64\DEBUG\CRAWLER.OBJ
C:\USERS\SMOKEY MCBONGWATER\DESKTOP\REPO\C-CA4\AIDANBLIGHCA4ABUGSLIFE\X64\DEBUG\BUG.OBJ
^C:\USERS\SMOKEY MCBONGWATER\DESKTOP\REPO\C-CA4\AIDANBLIGHCA4ABUGSLIFE\BUG.CPP|C:\USERS\SMOKEY MCBONGWATER\DESKTOP\REPO\C-CA4\AIDANBLIGHCA4ABUGSLIFE\CRAWLER.CPP|C:\USERS\SMOKEY MCBONGWATER\DESKTOP\REPO\C-CA4\AIDANBLIGHCA4ABUGSLIFE\HOPPER.CPP
C:\USERS\SMOKEY MCBONGWATER\DESKTOP\REPO\C-CA4\AIDANBLIGHCA4ABUGSLIFE\X64\DEBUG\VC142.PDB
C:\USERS\SMOKEY MCBONGWATER\DESKTOP\REPO\C-CA4\AIDANBLIGHCA4ABUGSLIFE\X64\DEBUG\VC142.IDB
C:\USERS\SMOKEY MCBONGWATER\DESKTOP\REPO\C-CA4\AIDANBLIGHCA4ABUGSLIFE\X64\DEBUG\HOPPER.OBJ
C:\USERS\SMOKEY MCBONGWATER\DESKTOP\REPO\C-CA4\AIDANBLIGHCA4ABUGSLIFE\X64\DEBUG\CRAWLER.OBJ
C:\USERS\SMOKEY MCBONGWATER\DESKTOP\REPO\C-CA4\AIDANBLIGHCA4ABUGSLIFE\X64\DEBUG\BUG.OBJ
^C:\USERS\SMOKEY MCBONGWATER\DESKTOP\REPO\C-CA4\AIDANBLIGHCA4ABUGSLIFE\AIDANBLIGHCA4ABUGSLIFE.CPP|C:\USERS\SMOKEY MCBONGWATER\DESKTOP\REPO\C-CA4\AIDANBLIGHCA4ABUGSLIFE\BUG.CPP|C:\USERS\SMOKEY MCBONGWATER\DESKTOP\REPO\C-CA4\AIDANBLIGHCA4ABUGSLIFE\HOPPER.CPP
C:\USERS\SMOKEY MCBONGWATER\DESKTOP\REPO\C-CA4\AIDANBLIGHCA4ABUGSLIFE\X64\DEBUG\VC142.PDB
C:\USERS\SMOKEY MCBONGWATER\DESKTOP\REPO\C-CA4\AIDANBLIGHCA4ABUGSLIFE\X64\DEBUG\VC142.IDB
C:\USERS\SMOKEY MCBONGWATER\DESKTOP\REPO\C-CA4\AIDANBLIGHCA4ABUGSLIFE\X64\DEBUG\HOPPER.OBJ
C:\USERS\SMOKEY MCBONGWATER\DESKTOP\REPO\C-CA4\AIDANBLIGHCA4ABUGSLIFE\X64\DEBUG\BUG.OBJ
^C:\USERS\SMOKEY MCBONGWATER\DESKTOP\REPO\C-CA4\AIDANBLIGHCA4ABUGSLIFE\AIDANBLIGHCA4ABUGSLIFE.CPP|C:\USERS\SMOKEY MCBONGWATER\DESKTOP\REPO\C-CA4\AIDANBLIGHCA4ABUGSLIFE\BUG.CPP|C:\USERS\SMOKEY MCBONGWATER\DESKTOP\REPO\C-CA4\AIDANBLIGHCA4ABUGSLIFE\CRAWLER.CPP|C:\USERS\SMOKEY MCBONGWATER\DESKTOP\REPO\C-CA4\AIDANBLIGHCA4ABUGSLIFE\HOPPER.CPP
C:\USERS\SMOKEY MCBONGWATER\DESKTOP\REPO\C-CA4\AIDANBLIGHCA4ABUGSLIFE\X64\DEBUG\VC142.PDB
C:\USERS\SMOKEY MCBONGWATER\DESKTOP\REPO\C-CA4\AIDANBLIGHCA4ABUGSLIFE\X64\DEBUG\VC142.IDB
C:\USERS\SMOKEY MCBONGWATER\DESKTOP\REPO\C-CA4\AIDANBLIGHCA4ABUGSLIFE\X64\DEBUG\HOPPER.OBJ
C:\USERS\SMOKEY MCBONGWATER\DESKTOP\REPO\C-CA4\AIDANBLIGHCA4ABUGSLIFE\X64\DEBUG\CRAWLER.OBJ
C:\USERS\SMOKEY MCBONGWATER\DESKTOP\REPO\C-CA4\AIDANBLIGHCA4ABUGSLIFE\X64\DEBUG\BUG.OBJ
C:\USERS\SMOKEY MCBONGWATER\DESKTOP\REPO\C-CA4\AIDANBLIGHCA4ABUGSLIFE\X64\DEBUG\AIDANBLIGHCA4ABUGSLIFE.OBJ
^C:\USERS\SMOKEY MCBONGWATER\DESKTOP\REPO\C-CA4\AIDANBLIGHCA4ABUGSLIFE\BUG.CPP
C:\USERS\SMOKEY MCBONGWATER\DESKTOP\REPO\C-CA4\AIDANBLIGHCA4ABUGSLIFE\X64\DEBUG\VC142.PDB
^C:\USERS\SMOKEY MCBONGWATER\DESKTOP\REPO\C-CA4\AIDANBLIGHCA4ABUGSLIFE\CRAWLER.CPP|C:\USERS\SMOKEY MCBONGWATER\DESKTOP\REPO\C-CA4\AIDANBLIGHCA4ABUGSLIFE\HOPPER.CPP
C:\USERS\SMOKEY MCBONGWATER\DESKTOP\REPO\C-CA4\AIDANBLIGHCA4ABUGSLIFE\X64\DEBUG\VC142.PDB
C:\USERS\SMOKEY MCBONGWATER\DESKTOP\REPO\C-CA4\AIDANBLIGHCA4ABUGSLIFE\X64\DEBUG\VC142.IDB
C:\USERS\SMOKEY MCBONGWATER\DESKTOP\REPO\C-CA4\AIDANBLIGHCA4ABUGSLIFE\X64\DEBUG\CRAWLER.OBJ
^C:\USERS\SMOKEY MCBONGWATER\DESKTOP\REPO\C-CA4\AIDANBLIGHCA4ABUGSLIFE\AIDANBLIGHCA4ABUGSLIFE.CPP|C:\USERS\SMOKEY MCBONGWATER\DESKTOP\REPO\C-CA4\AIDANBLIGHCA4ABUGSLIFE\CRAWLER.CPP|C:\USERS\SMOKEY MCBONGWATER\DESKTOP\REPO\C-CA4\AIDANBLIGHCA4ABUGSLIFE\HOPPER.CPP
C:\USERS\SMOKEY MCBONGWATER\DESKTOP\REPO\C-CA4\AIDANBLIGHCA4ABUGSLIFE\X64\DEBUG\VC142.PDB
C:\USERS\SMOKEY MCBONGWATER\DESKTOP\REPO\C-CA4\AIDANBLIGHCA4ABUGSLIFE\X64\DEBUG\VC142.IDB
C:\USERS\SMOKEY MCBONGWATER\DESKTOP\REPO\C-CA4\AIDANBLIGHCA4ABUGSLIFE\X64\DEBUG\HOPPER.OBJ
^C:\USERS\SMOKEY MCBONGWATER\DESKTOP\REPO\C-CA4\AIDANBLIGHCA4ABUGSLIFE\AIDANBLIGHCA4ABUGSLIFE.CPP|C:\USERS\SMOKEY MCBONGWATER\DESKTOP\REPO\C-CA4\AIDANBLIGHCA4ABUGSLIFE\CRAWLER.CPP
C:\USERS\SMOKEY MCBONGWATER\DESKTOP\REPO\C-CA4\AIDANBLIGHCA4ABUGSLIFE\X64\DEBUG\VC142.PDB
C:\USERS\SMOKEY MCBONGWATER\DESKTOP\REPO\C-CA4\AIDANBLIGHCA4ABUGSLIFE\X64\DEBUG\VC142.IDB
C:\USERS\SMOKEY MCBONGWATER\DESKTOP\REPO\C-CA4\AIDANBLIGHCA4ABUGSLIFE\X64\DEBUG\CRAWLER.OBJ
C:\USERS\SMOKEY MCBONGWATER\DESKTOP\REPO\C-CA4\AIDANBLIGHCA4ABUGSLIFE\X64\DEBUG\AIDANBLIGHCA4ABUGSLIFE.OBJ
^C:\USERS\SMOKEY MCBONGWATER\DESKTOP\REPO\C-CA4\AIDANBLIGHCA4ABUGSLIFE\CRAWLER.CPP
C:\USERS\SMOKEY MCBONGWATER\DESKTOP\REPO\C-CA4\AIDANBLIGHCA4ABUGSLIFE\X64\DEBUG\VC142.PDB
^C:\USERS\SMOKEY MCBONGWATER\DESKTOP\REPO\C-CA4\AIDANBLIGHCA4ABUGSLIFE\AIDANBLIGHCA4ABUGSLIFE.CPP|C:\USERS\SMOKEY MCBONGWATER\DESKTOP\REPO\C-CA4\AIDANBLIGHCA4ABUGSLIFE\HOPPER.CPP
C:\USERS\SMOKEY MCBONGWATER\DESKTOP\REPO\C-CA4\AIDANBLIGHCA4ABUGSLIFE\X64\DEBUG\VC142.PDB
C:\USERS\SMOKEY MCBONGWATER\DESKTOP\REPO\C-CA4\AIDANBLIGHCA4ABUGSLIFE\X64\DEBUG\VC142.IDB
C:\USERS\SMOKEY MCBONGWATER\DESKTOP\REPO\C-CA4\AIDANBLIGHCA4ABUGSLIFE\X64\DEBUG\HOPPER.OBJ
C:\USERS\SMOKEY MCBONGWATER\DESKTOP\REPO\C-CA4\AIDANBLIGHCA4ABUGSLIFE\X64\DEBUG\AIDANBLIGHCA4ABUGSLIFE.OBJ
^C:\USERS\SMOKEY MCBONGWATER\DESKTOP\REPO\C-CA4\AIDANBLIGHCA4ABUGSLIFE\AIDANBLIGHCA4ABUGSLIFE.CPP
C:\USERS\SMOKEY MCBONGWATER\DESKTOP\REPO\C-CA4\AIDANBLIGHCA4ABUGSLIFE\X64\DEBUG\VC142.PDB
^C:\USERS\SMOKEY MCBONGWATER\DESKTOP\REPO\C-CA4\AIDANBLIGHCA4ABUGSLIFE\HOPPER.CPP
C:\USERS\SMOKEY MCBONGWATER\DESKTOP\REPO\C-CA4\AIDANBLIGHCA4ABUGSLIFE\X64\DEBUG\VC142.PDB
^C:\USERS\SMOKEY MCBONGWATER\DESKTOP\REPO\CPPCA4BACKUP\C-CA4\AIDANBLIGHCA4ABUGSLIFE\AIDANBLIGHCA4ABUGSLIFE.CPP|C:\USERS\SMOKEY MCBONGWATER\DESKTOP\REPO\CPPCA4BACKUP\C-CA4\AIDANBLIGHCA4ABUGSLIFE\BUG.CPP|C:\USERS\SMOKEY MCBONGWATER\DESKTOP\REPO\CPPCA4BACKUP\C-CA4\AIDANBLIGHCA4ABUGSLIFE\CRAWLER.CPP|C:\USERS\SMOKEY MCBONGWATER\DESKTOP\REPO\CPPCA4BACKUP\C-CA4\AIDANBLIGHCA4ABUGSLIFE\HOPPER.CPP
C:\USERS\SMOKEY MCBONGWATER\DESKTOP\REPO\CPPCA4BACKUP\C-CA4\AIDANBLIGHCA4ABUGSLIFE\X64\DEBUG\VC142.PDB
C:\USERS\SMOKEY MCBONGWATER\DESKTOP\REPO\CPPCA4BACKUP\C-CA4\AIDANBLIGHCA4ABUGSLIFE\X64\DEBUG\VC142.IDB
C:\USERS\SMOKEY MCBONGWATER\DESKTOP\REPO\CPPCA4BACKUP\C-CA4\AIDANBLIGHCA4ABUGSLIFE\X64\DEBUG\HOPPER.OBJ
C:\USERS\SMOKEY MCBONGWATER\DESKTOP\REPO\CPPCA4BACKUP\C-CA4\AIDANBLIGHCA4ABUGSLIFE\X64\DEBUG\CRAWLER.OBJ
C:\USERS\SMOKEY MCBONGWATER\DESKTOP\REPO\CPPCA4BACKUP\C-CA4\AIDANBLIGHCA4ABUGSLIFE\X64\DEBUG\BUG.OBJ
C:\USERS\SMOKEY MCBONGWATER\DESKTOP\REPO\CPPCA4BACKUP\C-CA4\AIDANBLIGHCA4ABUGSLIFE\X64\DEBUG\AIDANBLIGHCA4ABUGSLIFE.OBJ
^C:\USERS\SMOKEY MCBONGWATER\DESKTOP\REPO\CPPCA4BACKUP\C-CA4\AIDANBLIGHCA4ABUGSLIFE\BUG.CPP|C:\USERS\SMOKEY MCBONGWATER\DESKTOP\REPO\CPPCA4BACKUP\C-CA4\AIDANBLIGHCA4ABUGSLIFE\CRAWLER.CPP
C:\USERS\SMOKEY MCBONGWATER\DESKTOP\REPO\CPPCA4BACKUP\C-CA4\AIDANBLIGHCA4ABUGSLIFE\X64\DEBUG\VC142.PDB
C:\USERS\SMOKEY MCBONGWATER\DESKTOP\REPO\CPPCA4BACKUP\C-CA4\AIDANBLIGHCA4ABUGSLIFE\X64\DEBUG\VC142.IDB
C:\USERS\SMOKEY MCBONGWATER\DESKTOP\REPO\CPPCA4BACKUP\C-CA4\AIDANBLIGHCA4ABUGSLIFE\X64\DEBUG\CRAWLER.OBJ
C:\USERS\SMOKEY MCBONGWATER\DESKTOP\REPO\CPPCA4BACKUP\C-CA4\AIDANBLIGHCA4ABUGSLIFE\X64\DEBUG\BUG.OBJ
^C:\USERS\SMOKEY MCBONGWATER\DESKTOP\REPO\CPPCA4BACKUP\C-CA4\AIDANBLIGHCA4ABUGSLIFE\BUG.CPP
C:\USERS\SMOKEY MCBONGWATER\DESKTOP\REPO\CPPCA4BACKUP\C-CA4\AIDANBLIGHCA4ABUGSLIFE\X64\DEBUG\VC142.PDB
^C:\USERS\SMOKEY MCBONGWATER\DESKTOP\REPO\CPPCA4BACKUP\C-CA4\AIDANBLIGHCA4ABUGSLIFE\CRAWLER.CPP|C:\USERS\SMOKEY MCBONGWATER\DESKTOP\REPO\CPPCA4BACKUP\C-CA4\AIDANBLIGHCA4ABUGSLIFE\HOPPER.CPP
C:\USERS\SMOKEY MCBONGWATER\DESKTOP\REPO\CPPCA4BACKUP\C-CA4\AIDANBLIGHCA4ABUGSLIFE\X64\DEBUG\VC142.PDB
C:\USERS\SMOKEY MCBONGWATER\DESKTOP\REPO\CPPCA4BACKUP\C-CA4\AIDANBLIGHCA4ABUGSLIFE\X64\DEBUG\VC142.IDB
C:\USERS\SMOKEY MCBONGWATER\DESKTOP\REPO\CPPCA4BACKUP\C-CA4\AIDANBLIGHCA4ABUGSLIFE\X64\DEBUG\HOPPER.OBJ
C:\USERS\SMOKEY MCBONGWATER\DESKTOP\REPO\CPPCA4BACKUP\C-CA4\AIDANBLIGHCA4ABUGSLIFE\X64\DEBUG\CRAWLER.OBJ
^C:\USERS\SMOKEY MCBONGWATER\DESKTOP\REPO\CPPCA4BACKUP\C-CA4\AIDANBLIGHCA4ABUGSLIFE\CRAWLER.CPP
C:\USERS\SMOKEY MCBONGWATER\DESKTOP\REPO\CPPCA4BACKUP\C-CA4\AIDANBLIGHCA4ABUGSLIFE\X64\DEBUG\VC142.PDB
C:\USERS\SMOKEY MCBONGWATER\DESKTOP\REPO\CPPCA4BACKUP\C-CA4\AIDANBLIGHCA4ABUGSLIFE\X64\DEBUG\VC142.IDB
C:\USERS\SMOKEY MCBONGWATER\DESKTOP\REPO\CPPCA4BACKUP\C-CA4\AIDANBLIGHCA4ABUGSLIFE\X64\DEBUG\CRAWLER.OBJ
^C:\USERS\SMOKEY MCBONGWATER\DESKTOP\REPO\CPPCA4BACKUP\C-CA4\AIDANBLIGHCA4ABUGSLIFE\AIDANBLIGHCA4ABUGSLIFE.CPP|C:\USERS\SMOKEY MCBONGWATER\DESKTOP\REPO\CPPCA4BACKUP\C-CA4\AIDANBLIGHCA4ABUGSLIFE\HOPPER.CPP
C:\USERS\SMOKEY MCBONGWATER\DESKTOP\REPO\CPPCA4BACKUP\C-CA4\AIDANBLIGHCA4ABUGSLIFE\X64\DEBUG\VC142.PDB
C:\USERS\SMOKEY MCBONGWATER\DESKTOP\REPO\CPPCA4BACKUP\C-CA4\AIDANBLIGHCA4ABUGSLIFE\X64\DEBUG\VC142.IDB
C:\USERS\SMOKEY MCBONGWATER\DESKTOP\REPO\CPPCA4BACKUP\C-CA4\AIDANBLIGHCA4ABUGSLIFE\X64\DEBUG\HOPPER.OBJ
C:\USERS\SMOKEY MCBONGWATER\DESKTOP\REPO\CPPCA4BACKUP\C-CA4\AIDANBLIGHCA4ABUGSLIFE\X64\DEBUG\AIDANBLIGHCA4ABUGSLIFE.OBJ
^C:\USERS\SMOKEY MCBONGWATER\DESKTOP\REPO\CPPCA4BACKUP\C-CA4\AIDANBLIGHCA4ABUGSLIFE\HOPPER.CPP
C:\USERS\SMOKEY MCBONGWATER\DESKTOP\REPO\CPPCA4BACKUP\C-CA4\AIDANBLIGHCA4ABUGSLIFE\X64\DEBUG\VC142.PDB
^C:\USERS\SMOKEY MCBONGWATER\DESKTOP\REPO\CPPCA4BACKUP\C-CA4\AIDANBLIGHCA4ABUGSLIFE\AIDANBLIGHCA4ABUGSLIFE.CPP
C:\USERS\SMOKEY MCBONGWATER\DESKTOP\REPO\CPPCA4BACKUP\C-CA4\AIDANBLIGHCA4ABUGSLIFE\X64\DEBUG\VC142.PDB
C:\USERS\SMOKEY MCBONGWATER\DESKTOP\REPO\CPPCA4BACKUP\C-CA4\AIDANBLIGHCA4ABUGSLIFE\X64\DEBUG\VC142.IDB
C:\USERS\SMOKEY MCBONGWATER\DESKTOP\REPO\CPPCA4BACKUP\C-CA4\AIDANBLIGHCA4ABUGSLIFE\X64\DEBUG\AIDANBLIGHCA4ABUGSLIFE.OBJ
