^C:\USERS\SMOKEY MCBONGWATER\DESKTOP\REPO\C-CA4\STRUCTURE\PAIR-STANDARD-LIBRARY\PAIR-STANDARD-LIBRARY.CPP
C:\USERS\SMOKEY MCBONGWATER\DESKTOP\REPO\C-CA4\STRUCTURE\PAIR-STANDARD-LIBRARY\X64\DEBUG\VC142.PDB
C:\USERS\SMOKEY MCBONGWATER\DESKTOP\REPO\C-CA4\STRUCTURE\PAIR-STANDARD-LIBRARY\X64\DEBUG\VC142.IDB
C:\USERS\SMOKEY MCBONGWATER\DESKTOP\REPO\C-CA4\STRUCTURE\PAIR-STANDARD-LIBRARY\X64\DEBUG\PAIR-STANDARD-LIBRARY.OBJ
